<mxfile host="app.diagrams.net" modified="2024-02-12T12:38:01.960Z" agent="Mozilla/5.0 (Windows NT 10.0; Win64; x64) AppleWebKit/537.36 (KHTML, like Gecko) Chrome/121.0.0.0 Safari/537.36 Edg/121.0.0.0" etag="2E0rSTrxDmOP3cGyiykl" version="23.1.2" type="device">
  <diagram name="1 oldal" id="xZE1It9KjqX9jAlzzpSx">
    <mxGraphModel dx="944" dy="1249" grid="1" gridSize="10" guides="1" tooltips="1" connect="1" arrows="1" fold="1" page="1" pageScale="1" pageWidth="827" pageHeight="1169" math="0" shadow="0">
      <root>
        <mxCell id="0" />
        <mxCell id="1" parent="0" />
        <mxCell id="7yT8mHl-d_ruFU2PduG3-27" style="edgeStyle=orthogonalEdgeStyle;rounded=0;orthogonalLoop=1;jettySize=auto;html=1;exitX=0.5;exitY=1;exitDx=0;exitDy=0;entryX=0.5;entryY=0;entryDx=0;entryDy=0;" parent="1" source="7yT8mHl-d_ruFU2PduG3-1" target="7yT8mHl-d_ruFU2PduG3-2" edge="1">
          <mxGeometry relative="1" as="geometry" />
        </mxCell>
        <mxCell id="7yT8mHl-d_ruFU2PduG3-1" value="Kerulet = 4&lt;br&gt;szelesseg(a) = 1&lt;br&gt;lepes(l) = 0.01&lt;br&gt;pontossag = 0.000001" style="rounded=1;whiteSpace=wrap;html=1;" parent="1" vertex="1">
          <mxGeometry x="310" y="90" width="120" height="80" as="geometry" />
        </mxCell>
        <mxCell id="7yT8mHl-d_ruFU2PduG3-28" style="edgeStyle=orthogonalEdgeStyle;rounded=0;orthogonalLoop=1;jettySize=auto;html=1;exitX=0.5;exitY=1;exitDx=0;exitDy=0;" parent="1" source="7yT8mHl-d_ruFU2PduG3-2" target="7yT8mHl-d_ruFU2PduG3-3" edge="1">
          <mxGeometry relative="1" as="geometry" />
        </mxCell>
        <mxCell id="7yT8mHl-d_ruFU2PduG3-2" value="T1 = Terulet(a + l)&lt;br&gt;T2 = Terulet(a - l)" style="rounded=1;whiteSpace=wrap;html=1;" parent="1" vertex="1">
          <mxGeometry x="310" y="210" width="120" height="60" as="geometry" />
        </mxCell>
        <mxCell id="7yT8mHl-d_ruFU2PduG3-9" style="edgeStyle=orthogonalEdgeStyle;rounded=0;orthogonalLoop=1;jettySize=auto;html=1;exitX=1;exitY=0.5;exitDx=0;exitDy=0;entryX=0.5;entryY=0;entryDx=0;entryDy=0;" parent="1" source="7yT8mHl-d_ruFU2PduG3-3" target="7yT8mHl-d_ruFU2PduG3-4" edge="1">
          <mxGeometry relative="1" as="geometry" />
        </mxCell>
        <mxCell id="7yT8mHl-d_ruFU2PduG3-10" value="Igen" style="edgeLabel;html=1;align=center;verticalAlign=middle;resizable=0;points=[];" parent="7yT8mHl-d_ruFU2PduG3-9" vertex="1" connectable="0">
          <mxGeometry x="0.005" y="2" relative="1" as="geometry">
            <mxPoint as="offset" />
          </mxGeometry>
        </mxCell>
        <mxCell id="7yT8mHl-d_ruFU2PduG3-11" style="edgeStyle=orthogonalEdgeStyle;rounded=0;orthogonalLoop=1;jettySize=auto;html=1;exitX=0;exitY=0.5;exitDx=0;exitDy=0;entryX=0.5;entryY=0;entryDx=0;entryDy=0;" parent="1" source="7yT8mHl-d_ruFU2PduG3-3" target="7yT8mHl-d_ruFU2PduG3-6" edge="1">
          <mxGeometry relative="1" as="geometry" />
        </mxCell>
        <mxCell id="7yT8mHl-d_ruFU2PduG3-12" value="Nem" style="edgeLabel;html=1;align=center;verticalAlign=middle;resizable=0;points=[];" parent="7yT8mHl-d_ruFU2PduG3-11" vertex="1" connectable="0">
          <mxGeometry x="0.1276" y="1" relative="1" as="geometry">
            <mxPoint as="offset" />
          </mxGeometry>
        </mxCell>
        <mxCell id="7yT8mHl-d_ruFU2PduG3-3" value="T1 &amp;gt; T2?" style="rounded=1;whiteSpace=wrap;html=1;" parent="1" vertex="1">
          <mxGeometry x="310" y="320" width="120" height="60" as="geometry" />
        </mxCell>
        <mxCell id="7yT8mHl-d_ruFU2PduG3-19" style="edgeStyle=orthogonalEdgeStyle;rounded=0;orthogonalLoop=1;jettySize=auto;html=1;exitX=0.5;exitY=1;exitDx=0;exitDy=0;entryX=0.5;entryY=0;entryDx=0;entryDy=0;" parent="1" source="7yT8mHl-d_ruFU2PduG3-4" edge="1">
          <mxGeometry relative="1" as="geometry">
            <mxPoint x="370" y="500" as="targetPoint" />
          </mxGeometry>
        </mxCell>
        <mxCell id="7yT8mHl-d_ruFU2PduG3-4" value="pozitiv lepesekkel folytatom:&lt;br&gt;l = l" style="rounded=1;whiteSpace=wrap;html=1;" parent="1" vertex="1">
          <mxGeometry x="470" y="380" width="120" height="60" as="geometry" />
        </mxCell>
        <mxCell id="7yT8mHl-d_ruFU2PduG3-20" style="edgeStyle=orthogonalEdgeStyle;rounded=0;orthogonalLoop=1;jettySize=auto;html=1;exitX=0.5;exitY=1;exitDx=0;exitDy=0;entryX=0.5;entryY=0;entryDx=0;entryDy=0;" parent="1" source="7yT8mHl-d_ruFU2PduG3-6" edge="1">
          <mxGeometry relative="1" as="geometry">
            <mxPoint x="370" y="500" as="targetPoint" />
          </mxGeometry>
        </mxCell>
        <mxCell id="7yT8mHl-d_ruFU2PduG3-6" value="negativ lepesekkel folytatom&lt;br&gt;l = -l" style="rounded=1;whiteSpace=wrap;html=1;" parent="1" vertex="1">
          <mxGeometry x="150" y="380" width="120" height="60" as="geometry" />
        </mxCell>
        <mxCell id="7yT8mHl-d_ruFU2PduG3-15" style="edgeStyle=orthogonalEdgeStyle;rounded=0;orthogonalLoop=1;jettySize=auto;html=1;exitX=0.5;exitY=1;exitDx=0;exitDy=0;entryX=0.5;entryY=0;entryDx=0;entryDy=0;" parent="1" source="7yT8mHl-d_ruFU2PduG3-29" target="7yT8mHl-d_ruFU2PduG3-8" edge="1">
          <mxGeometry relative="1" as="geometry">
            <mxPoint x="370" y="560" as="sourcePoint" />
          </mxGeometry>
        </mxCell>
        <mxCell id="7yT8mHl-d_ruFU2PduG3-21" style="edgeStyle=orthogonalEdgeStyle;rounded=0;orthogonalLoop=1;jettySize=auto;html=1;exitX=1;exitY=0.5;exitDx=0;exitDy=0;entryX=0.5;entryY=1;entryDx=0;entryDy=0;" parent="1" source="7yT8mHl-d_ruFU2PduG3-8" target="7yT8mHl-d_ruFU2PduG3-17" edge="1">
          <mxGeometry relative="1" as="geometry" />
        </mxCell>
        <mxCell id="7yT8mHl-d_ruFU2PduG3-23" value="Igen" style="edgeLabel;html=1;align=center;verticalAlign=middle;resizable=0;points=[];" parent="7yT8mHl-d_ruFU2PduG3-21" vertex="1" connectable="0">
          <mxGeometry x="-0.4886" y="-2" relative="1" as="geometry">
            <mxPoint x="24" y="-2" as="offset" />
          </mxGeometry>
        </mxCell>
        <mxCell id="7yT8mHl-d_ruFU2PduG3-31" style="edgeStyle=orthogonalEdgeStyle;rounded=0;orthogonalLoop=1;jettySize=auto;html=1;exitX=0.5;exitY=1;exitDx=0;exitDy=0;entryX=0.5;entryY=0;entryDx=0;entryDy=0;" parent="1" source="7yT8mHl-d_ruFU2PduG3-8" target="7yT8mHl-d_ruFU2PduG3-24" edge="1">
          <mxGeometry relative="1" as="geometry" />
        </mxCell>
        <mxCell id="7yT8mHl-d_ruFU2PduG3-32" value="Nem" style="edgeLabel;html=1;align=center;verticalAlign=middle;resizable=0;points=[];" parent="7yT8mHl-d_ruFU2PduG3-31" vertex="1" connectable="0">
          <mxGeometry x="-0.1559" y="1" relative="1" as="geometry">
            <mxPoint as="offset" />
          </mxGeometry>
        </mxCell>
        <mxCell id="7yT8mHl-d_ruFU2PduG3-8" value="T2 &amp;gt; T1?" style="rounded=1;whiteSpace=wrap;html=1;" parent="1" vertex="1">
          <mxGeometry x="310" y="600" width="120" height="60" as="geometry" />
        </mxCell>
        <mxCell id="7yT8mHl-d_ruFU2PduG3-30" style="edgeStyle=orthogonalEdgeStyle;rounded=0;orthogonalLoop=1;jettySize=auto;html=1;exitX=0.5;exitY=0;exitDx=0;exitDy=0;entryX=1;entryY=0.5;entryDx=0;entryDy=0;" parent="1" source="7yT8mHl-d_ruFU2PduG3-17" target="7yT8mHl-d_ruFU2PduG3-29" edge="1">
          <mxGeometry relative="1" as="geometry" />
        </mxCell>
        <mxCell id="7yT8mHl-d_ruFU2PduG3-17" value="a = a + l" style="rounded=1;whiteSpace=wrap;html=1;" parent="1" vertex="1">
          <mxGeometry x="530" y="550" width="120" height="60" as="geometry" />
        </mxCell>
        <mxCell id="7yT8mHl-d_ruFU2PduG3-47" style="edgeStyle=orthogonalEdgeStyle;rounded=0;orthogonalLoop=1;jettySize=auto;html=1;entryX=0.5;entryY=0;entryDx=0;entryDy=0;" parent="1" source="7yT8mHl-d_ruFU2PduG3-24" target="7yT8mHl-d_ruFU2PduG3-46" edge="1">
          <mxGeometry relative="1" as="geometry" />
        </mxCell>
        <mxCell id="7yT8mHl-d_ruFU2PduG3-24" value="l = l / 10" style="rounded=1;whiteSpace=wrap;html=1;" parent="1" vertex="1">
          <mxGeometry x="310" y="710" width="120" height="60" as="geometry" />
        </mxCell>
        <mxCell id="7yT8mHl-d_ruFU2PduG3-29" value="T1 = Terulet(a)&lt;br&gt;T2 = Terulet(a + l)" style="rounded=1;whiteSpace=wrap;html=1;" parent="1" vertex="1">
          <mxGeometry x="310" y="500" width="120" height="60" as="geometry" />
        </mxCell>
        <mxCell id="7yT8mHl-d_ruFU2PduG3-33" style="edgeStyle=orthogonalEdgeStyle;rounded=0;orthogonalLoop=1;jettySize=auto;html=1;exitX=0.5;exitY=1;exitDx=0;exitDy=0;" parent="1" source="7yT8mHl-d_ruFU2PduG3-34" target="7yT8mHl-d_ruFU2PduG3-39" edge="1">
          <mxGeometry relative="1" as="geometry" />
        </mxCell>
        <mxCell id="7yT8mHl-d_ruFU2PduG3-34" value="T1 = Terulet(a + l)&lt;br&gt;T2 = Terulet(a - l)" style="rounded=1;whiteSpace=wrap;html=1;" parent="1" vertex="1">
          <mxGeometry x="310" y="930" width="120" height="60" as="geometry" />
        </mxCell>
        <mxCell id="7yT8mHl-d_ruFU2PduG3-35" style="edgeStyle=orthogonalEdgeStyle;rounded=0;orthogonalLoop=1;jettySize=auto;html=1;exitX=1;exitY=0.5;exitDx=0;exitDy=0;entryX=0.5;entryY=0;entryDx=0;entryDy=0;" parent="1" source="7yT8mHl-d_ruFU2PduG3-39" target="7yT8mHl-d_ruFU2PduG3-40" edge="1">
          <mxGeometry relative="1" as="geometry" />
        </mxCell>
        <mxCell id="7yT8mHl-d_ruFU2PduG3-36" value="Igen" style="edgeLabel;html=1;align=center;verticalAlign=middle;resizable=0;points=[];" parent="7yT8mHl-d_ruFU2PduG3-35" vertex="1" connectable="0">
          <mxGeometry x="0.005" y="2" relative="1" as="geometry">
            <mxPoint as="offset" />
          </mxGeometry>
        </mxCell>
        <mxCell id="7yT8mHl-d_ruFU2PduG3-37" style="edgeStyle=orthogonalEdgeStyle;rounded=0;orthogonalLoop=1;jettySize=auto;html=1;exitX=0;exitY=0.5;exitDx=0;exitDy=0;entryX=0.5;entryY=0;entryDx=0;entryDy=0;" parent="1" source="7yT8mHl-d_ruFU2PduG3-39" target="7yT8mHl-d_ruFU2PduG3-41" edge="1">
          <mxGeometry relative="1" as="geometry" />
        </mxCell>
        <mxCell id="7yT8mHl-d_ruFU2PduG3-38" value="Nem" style="edgeLabel;html=1;align=center;verticalAlign=middle;resizable=0;points=[];" parent="7yT8mHl-d_ruFU2PduG3-37" vertex="1" connectable="0">
          <mxGeometry x="0.1276" y="1" relative="1" as="geometry">
            <mxPoint as="offset" />
          </mxGeometry>
        </mxCell>
        <mxCell id="7yT8mHl-d_ruFU2PduG3-39" value="T1 &amp;gt; T2?" style="rounded=1;whiteSpace=wrap;html=1;" parent="1" vertex="1">
          <mxGeometry x="310" y="1040" width="120" height="60" as="geometry" />
        </mxCell>
        <mxCell id="7yT8mHl-d_ruFU2PduG3-44" style="edgeStyle=orthogonalEdgeStyle;rounded=0;orthogonalLoop=1;jettySize=auto;html=1;exitX=0.5;exitY=1;exitDx=0;exitDy=0;entryX=0;entryY=0.5;entryDx=0;entryDy=0;" parent="1" target="7yT8mHl-d_ruFU2PduG3-29" edge="1">
          <mxGeometry relative="1" as="geometry">
            <mxPoint x="529.97" y="1120" as="sourcePoint" />
            <mxPoint x="309.97" y="550" as="targetPoint" />
            <Array as="points">
              <mxPoint x="530" y="1180" />
              <mxPoint x="120" y="1180" />
              <mxPoint x="120" y="530" />
            </Array>
          </mxGeometry>
        </mxCell>
        <mxCell id="7yT8mHl-d_ruFU2PduG3-40" value="ugyan abba az iranyba kell lepkedni mint eddig:&lt;br&gt;l = l" style="rounded=1;whiteSpace=wrap;html=1;" parent="1" vertex="1">
          <mxGeometry x="470" y="1100" width="120" height="60" as="geometry" />
        </mxCell>
        <mxCell id="7yT8mHl-d_ruFU2PduG3-45" style="edgeStyle=orthogonalEdgeStyle;rounded=0;orthogonalLoop=1;jettySize=auto;html=1;exitX=0;exitY=0.5;exitDx=0;exitDy=0;entryX=0;entryY=0.5;entryDx=0;entryDy=0;" parent="1" source="7yT8mHl-d_ruFU2PduG3-41" target="7yT8mHl-d_ruFU2PduG3-29" edge="1">
          <mxGeometry relative="1" as="geometry">
            <Array as="points">
              <mxPoint x="120" y="1130" />
              <mxPoint x="120" y="530" />
            </Array>
          </mxGeometry>
        </mxCell>
        <mxCell id="7yT8mHl-d_ruFU2PduG3-41" value="masik iranyba kell lepkedni, mint eddig&lt;br&gt;l = -l" style="rounded=1;whiteSpace=wrap;html=1;" parent="1" vertex="1">
          <mxGeometry x="150" y="1100" width="120" height="60" as="geometry" />
        </mxCell>
        <mxCell id="7yT8mHl-d_ruFU2PduG3-48" style="edgeStyle=orthogonalEdgeStyle;rounded=0;orthogonalLoop=1;jettySize=auto;html=1;exitX=0.5;exitY=1;exitDx=0;exitDy=0;" parent="1" source="7yT8mHl-d_ruFU2PduG3-46" target="7yT8mHl-d_ruFU2PduG3-34" edge="1">
          <mxGeometry relative="1" as="geometry" />
        </mxCell>
        <mxCell id="7yT8mHl-d_ruFU2PduG3-49" value="Nem" style="edgeLabel;html=1;align=center;verticalAlign=middle;resizable=0;points=[];" parent="7yT8mHl-d_ruFU2PduG3-48" vertex="1" connectable="0">
          <mxGeometry x="0.0097" y="3" relative="1" as="geometry">
            <mxPoint as="offset" />
          </mxGeometry>
        </mxCell>
        <mxCell id="7yT8mHl-d_ruFU2PduG3-50" style="edgeStyle=orthogonalEdgeStyle;rounded=0;orthogonalLoop=1;jettySize=auto;html=1;exitX=1;exitY=0.5;exitDx=0;exitDy=0;entryX=0;entryY=0.5;entryDx=0;entryDy=0;" parent="1" source="7yT8mHl-d_ruFU2PduG3-46" target="7yT8mHl-d_ruFU2PduG3-51" edge="1">
          <mxGeometry relative="1" as="geometry">
            <mxPoint x="610" y="850.0689655172414" as="targetPoint" />
          </mxGeometry>
        </mxCell>
        <mxCell id="7yT8mHl-d_ruFU2PduG3-46" value="abs(l) &amp;lt; pontossag?" style="rounded=1;whiteSpace=wrap;html=1;" parent="1" vertex="1">
          <mxGeometry x="310" y="820" width="120" height="60" as="geometry" />
        </mxCell>
        <mxCell id="7yT8mHl-d_ruFU2PduG3-51" value="Vegeredmeny kiirasa" style="ellipse;whiteSpace=wrap;html=1;" parent="1" vertex="1">
          <mxGeometry x="630" y="810" width="120" height="80" as="geometry" />
        </mxCell>
      </root>
    </mxGraphModel>
  </diagram>
</mxfile>
